montytxt.dat HEX 0000000000000000000000000000000000000000000000000000000000000000
 HEX 0000000080818283000000000000000000000000000000000000000000000000
 HEX 00008485868788898A0000000000000000000000000000000000000000000000
 HEX 00008B8C8D8E8F90910000000000000000000000000000000000000000000000
 HEX 0000009293949596970000000000000000000000000000000000000000000000
 HEX 00000098999A9B9C9D0000000000000000000000000000000000000000000000
 HEX 0000009E9FA0A1A2A30000000000000000000000000000000000000000000000
 HEX 000000A4A5A6A7A8000000000000000000000000000000000000000000000000
 HEX 000000A9AAABACAD252600000000000000000000000000000000000000000000
 HEX 00272829AEAFB02D2E2F30310000000000000000000000000000000000000000
 HEX 0032333435363738393A3B3C3D00000000000000000000000000000000000000
 HEX 0000000000000000000000000000000000000000000000000000000000000000
 HEX 0000000000000000000000000000000000000000000000000000000000000000
 HEX 0000000000000000000000000000000000000000000000000000000000000000
 HEX 0000000000000000000000000000000000000000000000000000000000000000
 HEX 0000000000000000000000000000000000000000000000000000000000000000
 HEX 0000000000000000000000000000000000000000000000000000000000000000
 HEX 0000000000000000000000000000000000000000000000000000000000000000
 HEX 0000000000000000000000000000000000000000000000000000000000000000
 HEX 0000000000000000000000000000000000000000000000000000000000000000
 HEX 0000000000000000000000000000000000000000000000000000000000000000
 HEX 0000000000000000000000000000000000000000000000000000000000000000
 HEX 0000000000000000000000000000000000000000000000000000000000000000
 HEX 0000000000000000000000000000000000000000000000000000000000000000
 HEX 0000000000000000000000000000000000000000000000000000000000000000
